{
  "state": {
    "finished": false,
    "cluingTeam": "red",
    "guesses": [],
    "board": [
      {
        "word": "BOOT",
        "color": "red",
        "revealed": false
      },
      {
        "word": "BATTERY",
        "color": "tan",
        "revealed": false
      },
      {
        "word": "DISEASE",
        "color": "tan",
        "revealed": false
      },
      {
        "word": "RACKET",
        "color": "blue",
        "revealed": false
      },
      {
        "word": "THEATER",
        "color": "tan",
        "revealed": false
      },
      {
        "word": "FIGURE",
        "color": "red",
        "revealed": false
      },
      {
        "word": "CROSS",
        "color": "red",
        "revealed": false
      },
      {
        "word": "PIRATE",
        "color": "red",
        "revealed": false
      },
      {
        "word": "TRUNK",
        "color": "blue",
        "revealed": false
      },
      {
        "word": "SPIDER",
        "color": "black",
        "revealed": false
      },
      {
        "word": "GAME",
        "color": "tan",
        "revealed": false
      },
      {
        "word": "MEXICO",
        "color": "red",
        "revealed": false
      },
      {
        "word": "BACK",
        "color": "blue",
        "revealed": false
      },
      {
        "word": "SCHOOL",
        "color": "blue",
        "revealed": false
      },
      {
        "word": "HELICOPTER",
        "color": "blue",
        "revealed": false
      },
      {
        "word": "FOREST",
        "color": "blue",
        "revealed": false
      },
      {
        "word": "FORCE",
        "color": "blue",
        "revealed": false
      },
      {
        "word": "SPOT",
        "color": "red",
        "revealed": false
      },
      {
        "word": "SWITCH",
        "color": "red",
        "revealed": false
      },
      {
        "word": "WHIP",
        "color": "tan",
        "revealed": false
      },
      {
        "word": "LIMOUSINE",
        "color": "red",
        "revealed": false
      },
      {
        "word": "NOTE",
        "color": "tan",
        "revealed": false
      },
      {
        "word": "LION",
        "color": "red",
        "revealed": false
      },
      {
        "word": "PIANO",
        "color": "blue",
        "revealed": false
      },
      {
        "word": "DUCK",
        "color": "tan",
        "revealed": false
      }
    ],
    "history": [],
    "spymasterRed": "jmandel",
    "spymasterBlue": "pw"
  },
  "message": 
    {
      "public": true,
      "player": "testwin",
      "command": "clue",
      "text": "%clue thingy 4" }
}
